-------------------------------------------------------------------------------
Test set: edu.lehigh.cse216.penguinpower.backend.LoginRouteTest
-------------------------------------------------------------------------------
Tests run: 1, Failures: 1, Errors: 0, Skipped: 0, Time elapsed: 0.295 sec <<< FAILURE!
testLogin(edu.lehigh.cse216.penguinpower.backend.LoginRouteTest)  Time elapsed: 0.147 sec  <<< FAILURE!
junit.framework.AssertionFailedError
	at junit.framework.Assert.fail(Assert.java:47)
	at junit.framework.Assert.assertTrue(Assert.java:20)
	at junit.framework.Assert.assertTrue(Assert.java:27)
	at edu.lehigh.cse216.penguinpower.backend.LoginRouteTest.testLogin(LoginRouteTest.java:77)

